Gapminder_wrangle
…
gap_better <- gap_wide %>%
  gather(observation, observ_value, -continent, -country) %>%
  separate(observation, into = c("obs_type", "year"), sep = "_", convert = TRUE) 

But we now have 3 observation types in same column. We want to use spread to separate them into 3 different columns (goal: one data type per column)

unique(gap_better$obs_type) # see what types are in the obs_type column

## [1] "gdpPercap" "lifeExp"   "pop"

gap_better %>%
  spread(obs_type, observ_value) # need column name and associated value

## # A tibble: 1,704 x 6
##    continent country  year gdpPercap lifeExp       pop
##    <chr>     <chr>   <int>     <dbl>   <dbl>     <dbl>
##  1 Africa    Algeria  1952     2449.    43.1  9279525.
##  2 Africa    Algeria  1957     3014.    45.7 10270856.
##  3 Africa    Algeria  1962     2551.    48.3 11000948.
##  4 Africa    Algeria  1967     3247.    51.4 12760499.
##  5 Africa    Algeria  1972     4183.    54.5 14760787.
##  6 Africa    Algeria  1977     4910.    58.0 17152804.
##  7 Africa    Algeria  1982     5745.    61.4 20033753.
##  8 Africa    Algeria  1987     5681.    65.8 23254956.
##  9 Africa    Algeria  1992     5023.    67.7 26298373.
## 10 Africa    Algeria  1997     4797.    69.2 29072015.
## # ... with 1,694 more rows
…
